{
  "plugins": [
    "plugins/markdown",
    "plugins/summarize"
],
  "source": {
      "includePattern": ".+\\.js(doc|x)?$",
      "include": ["."],
      "exclude": ["node_modules", "coverage", "tests"]
  },
  "sourceType": "module",
  "recurseDepth": 10,
  "opts": {
    "template": "templates/default",
      "destination": "../doc/JSDoc/out/",
      "encoding": "utf8",
      "recurse": true 
  },
  "tags": {
      "allowUnknownTags": true,
      "dictionaries": ["jsdoc","closure"]
  },
  "templates": {
      "cleverLinks": false,
      "monospaceLinks": false
  }
}