{
  "definition": {
    "openapi": "3.0.0",
    "info": {
      "title": "API Marche des Causses",
      "version": "1.0.0",
      "description": "An API for Marche des Causses informations",
      "contact": {
        "name": "Pierre Odeau",
        "email":  "odeaupierre@yahoo.fr"
      }
    },
    "servers": [
      {"description": "Server prod", "url": "http://pierro.ddns.net:3000"},
      {"description": "Server test", "url": "http://localhost:3000"}
    ],
    "security": [
      {"bearerAuth": []}
    ],
    "tags": [{
        "name": "Token",
        "description": "Requests concerning token"
      },{
        "name": "Users",
        "description": "Requests concerning users"
      },{
        "name": "Years",
        "description": "Requests concerning years"
      },{
        "name": "Teams",
        "description": "Requests concerning teams"
      },{
        "name": "Caussenards",
        "description": "Requests concerning caussenards"
      },{
        "name": "Members",
        "description": "Requests concerning members"
      },{
        "name": "Stats",
        "description": "Requests concerning statistics"
      }
    ]
  },
  "apis":[
    "../doc/OpenAPI/components/*.yml", 
    "../doc/OpenAPI/*.yml", 
    "../doc/OpenAPI/paths/*.yml"
  ]
}