{
  "development": {
    "username": "root",
    "password": "root",
    "database": "database_development",
    "host": "127.0.0.1",
    "dialect": "mysql",
    "define": {
      "charset": "utf8",
      "collate": "utf8_general_cli"
    },
    "logging": true,
    "operatorsAliases": false
  },
  "test": {
    "username": "root",
    "password": "root",
    "database": "database_test",
    "host": "127.0.0.1",
    "dialect": "mysql",
    "define": {
      "charset": "utf8",
      "collate": "utf8_general_cli"
    },
    "logging": false,
    "operatorsAliases": false
  },
  "cicd": {
    "username": "root",
    "password": "root",
    "database": "database_test",
    "host": "mysql",
    "dialect": "mysql",
    "define": {
      "charset": "utf8",
      "collate": "utf8_general_cli"
    },
    "logging": false,
    "operatorsAliases": false
  },
  "production": {
    "username": "root",
    "password": "root",
    "database": "database_production",
    "host": "127.0.0.1",
    "dialect": "mysql",
    "operatorsAliases": false
  }
}
